{
    "type": "ExistingCloud",
    "auth_url": "http://172.16.0.23:5000/v2.0/",
    "region_name": "regionOne",
    "endpoint_type": "public",
    "admin": {
        "username": "admin",
        "password": "FxachXrcwW4ghVaCKm76wtRyw",
#      "user_domain_name": "default",
#      "admin_doman_name": "default",
#      "project_name": "admin",
#      "project_domain_name": "default"
        "tenant_name": "admin"
    },
    "https_insecure": True, 
    "https_cacert": "",
    "users": [
    {
            "username": "admin",
            "password": "FxachXrcwW4ghVaCKm76wtRyw",
            "tenant_name": "admin"
    }
    ]
}
